{
    "SystemName":"SAPApollo",
    "OperationName":"EOL",
    "Data":{
        "SystemName":"",
        "MdmNumber":"",
        "MaterialNum":"",
        "Plant":"",
        "StorageLocation":"",
        "SalesOrg":"",
        "DistributionChannel":"",
        "DchainStatus":"",
        "MaterialValidFrom":"",
        "XplMatStatus":""
    }
}